{
	"pages": [
		{
			"path": "pages/index/index",
			"style": {
				"navigationBarTitleText": "首页"
			}
		},
		{
			"path": "pages/classify/index",
			"style": {
				"navigationBarTitleText": "分类"
			}
		},
		{
			"path": "pages/liveShop/index",
			"style": {
				"navigationBarTitleText": "直播购物"
			}
		},
		{
			"path": "pages/shopCar/index",
			"style": {
				"navigationBarTitleText": "购物"
			}
		},
		{
			"path": "pages/my/index",
			"style": {
				"navigationBarTitleText": "我的页面"
			}
		},
		{
			"path": "pages/address/address",
			"style": {
				"navigationBarTitleText": "收货地址"
			}
		},
		{
			"path": "pages/address/Newaddress",
			"style": {
				"navigationBarTitleText": "新增地址页面"
			}
		},
		{
			"path": "pages/Orderlist/list",
			"style": {
				"navigationBarTitleText": "订单列表"
			}
		},
		{
			"path": "pages/placeOrder/index",
			"style": {
				"navigationBarTitleText": "提交订单"
			}
		},
		{
			"path": "pages/search/index",
			"style": {
				"navigationBarTitleText": "搜索"
			}
		},
		{
			"path": "pages/search/searchpage",
			"style": {
				"navigationBarTitleText": "搜索结果"
			}
		},
		{
			"path": "pages/detail/index",
			"style": {
				"navigationBarTitleText": "商品详情"
			}
		},
		{
			"path": "pages/Classifyy/index",
			"style": {
				"navigationBarTitleText": "新品推荐"
			}
		},
		{
			"path": "pages/discountProd/index",
			"style": {
				"navigationBarTitleText": "限时特惠"
			}
		},
		{
			"path": "pages/moreBuyProd/index",
			"style": {
				"navigationBarTitleText": "每日疯抢"
			}
		},
		{
			"path": "pages/inform/index",
			"style": {
				"navigationBarTitleText": "最新公告"
			}
		},
		{

			"path": "pages/Collection/Collection",
			"style": {
				"navigationBarTitleText": "收藏页面"
			}
		},
		{
			"path": "pages/message/message",
			"style": {
				"navigationBarTitleText": "消息页面"
			}
		},
		{
			"path": "pages/footprint/footprint",
			"style": {
				"navigationBarTitleText": "我的足迹"
			}
		},
		{
			"path": "pages/tagral/tagral",
			"style": {
				"navigationBarTitleText": "我的积分"
		},
			"path": "pages/informDel/index",
			"style": {
				"navigationBarTitleText": "公告详情"
			}
		},
		{
			"path": "pages/MRsx/index",
			"style": {
				"navigationBarTitleText": "每日上新"
			}
		},
		{
			"path": "pages/SCrm/index",
			"style": {
				"navigationBarTitleText": "商城热卖"

			}
			// "path": "pages/informDel/index",
			// "style": {
			// 	"navigationBarTitleText": "公告详情"
			// }
		},
		{
			"path": "pages/MRsx/index",
			"style": {
				"navigationBarTitleText": "每日上新"
			}
		},
		{
			"path": "pages/SCrm/index",
			"style": {
				"navigationBarTitleText": "商城热卖"
			}
		}
	
	],
	"tabBar": {
		"color": "#b8b8b8",
		"selectedColor": "#3a86b9",
		"list": [
			{
				"pagePath": "pages/index/index",
				"text": "首页",
				"iconPath": "static/tabbar/homepage.png",
				"selectedIconPath": "static/tabbar/homepage-sel.png"
			},
			{
				"pagePath": "pages/classify/index",
				"text": "分类",
				"iconPath": "static/tabbar/category.png",
				"selectedIconPath": "static/tabbar/category-sel.png"
			},
			{
				"pagePath": "pages/liveShop/index",
				"text": "直播购物",
				"iconPath": "static/tabbar/live.png",
				"selectedIconPath": "static/tabbar/live-sel.png"
			},
			{
				"pagePath": "pages/shopCar/index",
				"text": "购物车",
				"iconPath": "static/tabbar/basket.png",
				"selectedIconPath": "static/tabbar/basket-sel.png"
			},
			{
				"pagePath": "pages/my/index",
				"text": "我的",
				"iconPath": "static/tabbar/user.png",
				"selectedIconPath": "static/tabbar/user-sel.png"
			}
		]
	},
	"globalStyle": {
		"navigationBarTextStyle": "black",
		"navigationBarTitleText": "uni-app",
		"navigationBarBackgroundColor": "#fff",
		"backgroundColor": "#F8F8F8"
	},
	"easycom": {
		"autoscan": true,
		"custom": {
			"^uni-(.*)": "@dcloudio/uni-ui/lib/uni-$1/uni-$1.vue"
		},
		"^u-(.*)": "@/uview-ui/components/u-$1/u-$1.vue"
	},
	"uniIdRouter": {},
	"condition": {
		"current": 0,
		"list": [
			{
				"name": "",
				"path": "",
				"query": ""
			}
		]
	},
	"easycom": {
		"autoscan": true,
		"custom": {
			"^uni-(.*)": "@dcloudio/uni-ui/lib/uni-$1/uni-$1.vue"
		},
		"^u-(.*)": "@/uview-ui/components/u-$1/u-$1.vue"
	}
<<<<<<< HEAD

}
=======
}
>>>>>>> dev_zh
